…
### Problem 1

``` r
transit <- read_csv("NYC_Transit_Subway_Entrance_And_Exit_Data.csv", col_types = cols(Route8 = "c", Route9 = "c", Route10 = "c", Route11 = "c")) %>% 
  janitor::clean_names() %>% 
  select(line, station_name, station_latitude, station_longitude, starts_with("route"), entry, exit_only, vending, entrance_type, ada) %>% 
  mutate(entry = ifelse(entry == "YES", TRUE, FALSE))

transit %>% 
  select(station_name, line) %>% 
  distinct()
```

    ## # A tibble: 465 × 2
    ##    station_name             line    
    ##    <chr>                    <chr>   
    ##  1 25th St                  4 Avenue
    ##  2 36th St                  4 Avenue
    ##  3 45th St                  4 Avenue
    ##  4 53rd St                  4 Avenue
    ##  5 59th St                  4 Avenue
    ##  6 77th St                  4 Avenue
    ##  7 86th St                  4 Avenue
    ##  8 95th St                  4 Avenue
    ##  9 9th St                   4 Avenue
    ## 10 Atlantic Av-Barclays Ctr 4 Avenue
    ## # … with 455 more rows

``` r
transit %>% 
  filter(ada == TRUE) %>% 
  select(station_name, line) %>% 
  distinct()
```

    ## # A tibble: 84 × 2
    ##    station_name                   line           
    ##    <chr>                          <chr>          
    ##  1 Atlantic Av-Barclays Ctr       4 Avenue       
    ##  2 DeKalb Av                      4 Avenue       
    ##  3 Pacific St                     4 Avenue       
    ##  4 Grand Central                  42nd St Shuttle
    ##  5 34th St                        6 Avenue       
    ##  6 47-50th Sts Rockefeller Center 6 Avenue       
    ##  7 Church Av                      6 Avenue       
    ##  8 21st St                        63rd Street    
    ##  9 Lexington Av                   63rd Street    
    ## 10 Roosevelt Island               63rd Street    
    ## # … with 74 more rows
…
    ## [1] 0.3770492

``` r
transit %>% 
  pivot_longer(route1:route11, names_to = "route_num", values_to = "route") %>% 
  filter(route == "A") %>% 
  select(station_name, line) %>% 
  distinct()
```

    ## # A tibble: 60 × 2
    ##    station_name                  line           
    ##    <chr>                         <chr>          
    ##  1 Times Square                  42nd St Shuttle
    ##  2 125th St                      8 Avenue       
    ##  3 145th St                      8 Avenue       
    ##  4 14th St                       8 Avenue       
    ##  5 168th St - Washington Heights 8 Avenue       
    ##  6 175th St                      8 Avenue       
    ##  7 181st St                      8 Avenue       
    ##  8 190th St                      8 Avenue       
    ##  9 34th St                       8 Avenue       
    ## 10 42nd St                       8 Avenue       
    ## # … with 50 more rows
…
